<?xml version="1.0" encoding="UTF-8" standalone="no"?>
<!-- Created with Inkscape (http://www.inkscape.org/) -->

<svg
   xmlns:dc="http://purl.org/dc/elements/1.1/"
   xmlns:cc="http://creativecommons.org/ns#"
   xmlns:rdf="http://www.w3.org/1999/02/22-rdf-syntax-ns#"
   xmlns:svg="http://www.w3.org/2000/svg"
   xmlns="http://www.w3.org/2000/svg"
   xmlns:xlink="http://www.w3.org/1999/xlink"
   xmlns:sodipodi="http://sodipodi.sourceforge.net/DTD/sodipodi-0.dtd"
   xmlns:inkscape="http://www.inkscape.org/namespaces/inkscape"
   id="svg4865"
   height="16"
   width="18.716522"
   version="1.0"
   inkscape:version="0.48.3.1 r9886"
   sodipodi:docname="package.svg">
  <metadata
     id="metadata55">
    <rdf:RDF>
      <cc:Work
         rdf:about="">
        <dc:format>image/svg+xml</dc:format>
        <dc:type
           rdf:resource="http://purl.org/dc/dcmitype/StillImage" />
        <dc:title></dc:title>
      </cc:Work>
    </rdf:RDF>
  </metadata>
  <sodipodi:namedview
     pagecolor="#ffffff"
     bordercolor="#666666"
     borderopacity="1"
     objecttolerance="10"
     gridtolerance="10"
     guidetolerance="10"
     inkscape:pageopacity="0"
     inkscape:pageshadow="2"
     inkscape:window-width="1920"
     inkscape:window-height="1031"
     id="namedview53"
     showgrid="false"
     inkscape:zoom="14.587629"
     inkscape:cx="31.5"
     inkscape:cy="1.5"
     inkscape:window-x="0"
     inkscape:window-y="0"
     inkscape:window-maximized="1"
     inkscape:current-layer="svg4865"
     fit-margin-top="0"
     fit-margin-left="0"
     fit-margin-right="0"
     fit-margin-bottom="0" />
  <defs
     id="defs4867">
    <radialGradient
       id="radialGradient2480"
       xlink:href="#linearGradient3681"
       gradientUnits="userSpaceOnUse"
       cy="41.5"
       cx="5"
       gradientTransform="matrix(0.59382,0,0,1.5367,41.141,-103.94)"
       r="5" />
    <linearGradient
       id="linearGradient2478"
       y2="35"
       gradientUnits="userSpaceOnUse"
       x2="17.554001"
       gradientTransform="matrix(1.757,0,0,1.397,-17.394,-16.412)"
       y1="46"
       x1="17.554001">
      <stop
         id="stop3705"
         style="stop-opacity:0"
         offset="0" />
      <stop
         id="stop3711"
         offset=".5" />
      <stop
         id="stop3707"
         style="stop-opacity:0"
         offset="1" />
    </linearGradient>
    <linearGradient
       id="linearGradient3681">
      <stop
         id="stop3683"
         offset="0" />
      <stop
         id="stop3685"
         style="stop-opacity:0"
         offset="1" />
    </linearGradient>
    <radialGradient
       id="radialGradient2476"
       xlink:href="#linearGradient3681"
       gradientUnits="userSpaceOnUse"
       cy="41.5"
       cx="5"
       gradientTransform="matrix(0.59382,0,0,1.5367,-6.6595,-103.94)"
       r="5" />
    <linearGradient
       id="linearGradient2509"
       y2="45.042"
       gradientUnits="userSpaceOnUse"
       x2="15.464"
       gradientTransform="matrix(2.7071,0,0,2.6646,-0.96979,0.92052)"
       y1="8.0320997"
       x1="15.464">
      <stop
         id="stop2517"
         style="stop-color:#c9af8b"
         offset="0" />
      <stop
         id="stop2519"
         style="stop-color:#ad8757"
         offset=".25061" />
      <stop
         id="stop2521"
         style="stop-color:#c2a57f"
         offset=".26044" />
      <stop
         id="stop2523"
         style="stop-color:#9d7d53"
         offset="1" />
    </linearGradient>
    <linearGradient
       id="linearGradient2507"
       y2="38.515999"
       gradientUnits="userSpaceOnUse"
       x2="24.997"
       gradientTransform="matrix(3.4711,0,0,4.1495,-17.402,-39.823)"
       y1="15.14"
       x1="24.997">
      <stop
         id="stop2527"
         style="stop-color:#dac197"
         offset="0" />
      <stop
         id="stop2529"
         style="stop-color:#c1a581"
         offset=".24596" />
      <stop
         id="stop2531"
         style="stop-color:#dac197"
         offset=".25642" />
      <stop
         id="stop2533"
         style="stop-color:#a68b60"
         offset="1" />
    </linearGradient>
    <radialGradient
       id="radialGradient2504"
       gradientUnits="userSpaceOnUse"
       cy="31"
       cx="24"
       gradientTransform="matrix(4.5505,0,0,1.8,-45.213,27.2)"
       r="20">
      <stop
         id="stop3225"
         style="stop-color:#cbad7a"
         offset="0" />
      <stop
         id="stop3227"
         style="stop-color:#cbae7d;stop-opacity:0"
         offset="1" />
    </radialGradient>
    <linearGradient
       id="linearGradient2498"
       y2="17.5"
       spreadMethod="reflect"
       gradientUnits="userSpaceOnUse"
       x2="3.0051999"
       gradientTransform="matrix(2.708,0,0,2.6575,-0.99212,0.99404)"
       y1="17.5"
       x1="44.994999">
      <stop
         id="stop2537"
         style="stop-color:#fff;stop-opacity:0"
         offset="0" />
      <stop
         id="stop2539"
         style="stop-color:#fff"
         offset=".1" />
      <stop
         id="stop2541"
         style="stop-color:#fff"
         offset="0.9" />
      <stop
         id="stop2543"
         style="stop-color:#fff;stop-opacity:0"
         offset="1" />
    </linearGradient>
    <linearGradient
       id="linearGradient4799"
       y2="23.5"
       gradientUnits="userSpaceOnUse"
       x2="63.5"
       y1="47.5"
       x1="63.5">
      <stop
         id="stop4795"
         style="stop-color:#ad8757"
         offset="0" />
      <stop
         id="stop4797"
         style="stop-color:#c7ad88;stop-opacity:.39216"
         offset="1" />
    </linearGradient>
    <linearGradient
       id="linearGradient2495"
       y2="8"
       gradientUnits="userSpaceOnUse"
       x2="26"
       gradientTransform="matrix(3,0,0,2.7143,-8,0.28571)"
       y1="22"
       x1="26">
      <stop
         id="stop3982"
         style="stop-color:#fff"
         offset="0" />
      <stop
         id="stop3984"
         style="stop-color:#fff"
         offset=".32469" />
      <stop
         id="stop3986"
         style="stop-color:#fff;stop-opacity:.69020"
         offset=".37369" />
      <stop
         id="stop3988"
         style="stop-color:#fff;stop-opacity:0"
         offset="1" />
    </linearGradient>
    <linearGradient
       id="linearGradient4803"
       y2="23.5"
       gradientUnits="userSpaceOnUse"
       x2="63.5"
       gradientTransform="translate(1,0)"
       y1="47.5"
       x1="63.5">
      <stop
         id="stop4807"
         style="stop-color:#fff"
         offset="0" />
      <stop
         id="stop4811"
         style="stop-color:#fff;stop-opacity:.31373"
         offset="1" />
    </linearGradient>
    <radialGradient
       inkscape:collect="always"
       xlink:href="#linearGradient3681"
       id="radialGradient3089"
       gradientUnits="userSpaceOnUse"
       gradientTransform="matrix(0.59382,0,0,1.5367,-6.6595,-103.94)"
       cx="5"
       cy="41.5"
       r="5" />
    <linearGradient
       inkscape:collect="always"
       xlink:href="#linearGradient2478"
       id="linearGradient3091"
       gradientUnits="userSpaceOnUse"
       gradientTransform="matrix(1.757,0,0,1.397,-17.394,-16.412)"
       x1="17.554001"
       y1="46"
       x2="17.554001"
       y2="35" />
    <radialGradient
       inkscape:collect="always"
       xlink:href="#linearGradient3681"
       id="radialGradient3093"
       gradientUnits="userSpaceOnUse"
       gradientTransform="matrix(0.59382,0,0,1.5367,41.141,-103.94)"
       cx="5"
       cy="41.5"
       r="5" />
    <linearGradient
       inkscape:collect="always"
       xlink:href="#linearGradient2507"
       id="linearGradient3095"
       gradientUnits="userSpaceOnUse"
       gradientTransform="matrix(3.4711,0,0,4.1495,-17.402,-39.823)"
       x1="24.997"
       y1="15.14"
       x2="24.997"
       y2="38.515999" />
    <linearGradient
       inkscape:collect="always"
       xlink:href="#linearGradient2509"
       id="linearGradient3097"
       gradientUnits="userSpaceOnUse"
       gradientTransform="matrix(2.7071,0,0,2.6646,-0.96979,0.92052)"
       x1="15.464"
       y1="8.0320997"
       x2="15.464"
       y2="45.042" />
    <radialGradient
       inkscape:collect="always"
       xlink:href="#radialGradient2504"
       id="radialGradient3099"
       gradientUnits="userSpaceOnUse"
       gradientTransform="matrix(4.5505,0,0,1.8,-45.213,27.2)"
       cx="24"
       cy="31"
       r="20" />
    <linearGradient
       inkscape:collect="always"
       xlink:href="#linearGradient2498"
       id="linearGradient3101"
       gradientUnits="userSpaceOnUse"
       gradientTransform="matrix(2.708,0,0,2.6575,-0.99212,0.99404)"
       spreadMethod="reflect"
       x1="44.994999"
       y1="17.5"
       x2="3.0051999"
       y2="17.5" />
    <linearGradient
       inkscape:collect="always"
       xlink:href="#linearGradient4799"
       id="linearGradient3103"
       gradientUnits="userSpaceOnUse"
       x1="63.5"
       y1="47.5"
       x2="63.5"
       y2="23.5" />
    <linearGradient
       inkscape:collect="always"
       xlink:href="#linearGradient4803"
       id="linearGradient3105"
       gradientUnits="userSpaceOnUse"
       gradientTransform="translate(1,0)"
       x1="63.5"
       y1="47.5"
       x2="63.5"
       y2="23.5" />
    <linearGradient
       inkscape:collect="always"
       xlink:href="#linearGradient2495"
       id="linearGradient3107"
       gradientUnits="userSpaceOnUse"
       gradientTransform="matrix(3,0,0,2.7143,-8,0.28571)"
       x1="26"
       y1="22"
       x2="26"
       y2="8" />
  </defs>
  <g
     id="g3043"
     transform="matrix(0.15093823,0,0,0.15093823,-0.30189256,-3.3206411)">
    <g
       id="layer1">
      <g
         transform="matrix(2.6759,0,0,2.6031,0.046165,3.4479)"
         style="opacity:0.3"
         id="g3305">
        <rect
           x="-3.6903999"
           y="-47.848"
           width="2.9602001"
           height="15.367"
           transform="scale(-1,-1)"
           style="fill:url(#radialGradient3089)"
           id="rect2484" />
        <rect
           x="3.6903999"
           y="32.481998"
           width="40.411999"
           height="15.367"
           style="fill:url(#linearGradient3091)"
           id="rect2486" />
        <rect
           x="44.110001"
           y="-47.848"
           width="2.9602001"
           height="15.367"
           transform="scale(1,-1)"
           style="fill:url(#radialGradient3093)"
           id="rect3444" />
      </g>
      <path
         d="m 23.423,23.57 h 79.857 c 4.66,0 6.75,-0.764 8.09,2.664 l 8.13,21.317 v 68.409 c 0,4.14 0.28,3.51 -4.38,3.51 H 12.88 c -4.6584,0 -4.3797,0.63 -4.3797,-3.51 V 47.551 L 16.626,26.234 c 1.302,-3.359 2.135,-2.664 6.797,-2.664 z"
         style="fill:url(#linearGradient3095);stroke:url(#linearGradient3097);stroke-width:0.99419999;stroke-linecap:round;display:block"
         id="path2488"
         inkscape:connector-curvature="0" />
      <rect
         x="9"
         y="47"
         width="110"
         height="72"
         style="fill:url(#radialGradient3099);fill-rule:evenodd"
         id="rect3209" />
      <path
         d="m 8.5,47.5 h 111"
         style="opacity:0.3;fill:none;stroke:url(#linearGradient3101);stroke-width:1px;stroke-linecap:square"
         id="path3273"
         inkscape:connector-curvature="0" />
      <path
         d="M 63.5,24 V 47"
         style="fill:none;stroke:url(#linearGradient3103);stroke-width:1px"
         id="path4763"
         inkscape:connector-curvature="0" />
      <path
         d="M 64.5,24 V 47"
         style="opacity:0.3;fill:none;stroke:url(#linearGradient3105);stroke-width:1px"
         id="path4801"
         inkscape:connector-curvature="0" />
      <path
         d="M 58,22 H 70 V 60 H 66.456 62.828 59.908 58 V 22 z"
         style="opacity:0.4;fill:url(#linearGradient3107)"
         id="rect3326"
         inkscape:connector-curvature="0" />
    </g>
  </g>
  <g
     id="g4021"
     transform="translate(-17.8125,4.15625)">
    <circle
       style="fill:#714836;fill-opacity:1"
       id="circle4"
       transform="matrix(0.09707962,0,0,0.09707962,22.093712,0.04422915)"
       r="9.1239996"
       cy="46.903999"
       cx="9.1239996"
       sodipodi:cx="9.1239996"
       sodipodi:cy="46.903999"
       sodipodi:rx="9.1239996"
       sodipodi:ry="9.1239996"
       d="m 18.247999,46.903999 c 0,5.039046 -4.084954,9.124 -9.1239994,9.124 C 4.0849538,56.027999 0,51.943045 0,46.903999 0,41.864953 4.0849538,37.78 9.1239996,37.78 c 5.0390454,0 9.1239994,4.084953 9.1239994,9.123999 z" />
    <circle
       style="fill:#714836;fill-opacity:1"
       id="circle6"
       transform="matrix(0.09707962,0,0,0.09707962,22.093712,0.04422915)"
       r="9.1239996"
       cy="84.667"
       cx="74.547997"
       sodipodi:cx="74.547997"
       sodipodi:cy="84.667"
       sodipodi:rx="9.1239996"
       sodipodi:ry="9.1239996"
       d="m 83.671996,84.667 c 0,5.039046 -4.084954,9.123999 -9.123999,9.123999 -5.039046,0 -9.124,-4.084953 -9.124,-9.123999 0,-5.039046 4.084954,-9.124 9.124,-9.124 5.039045,0 9.123999,4.084954 9.123999,9.124 z" />
    <path
       style="fill:#714836;fill-opacity:1"
       id="path19"
       d="m 27.213594,2.405885 c 1.102922,0 2.017995,0.8189636 2.169536,1.8807232 l 1.517548,0 C 30.831752,3.4523061 30.485857,2.6746984 29.907554,2.0614465 29.537195,2.2500722 29.081794,2.2536642 28.694932,2.030381 28.307779,1.8068067 28.083136,1.4103335 28.061584,0.99483272 c -0.274832,-0.0640726 -0.558789,-0.0972738 -0.847989,-0.0972738 -0.553742,0 -1.088845,0.12086408 -1.575506,0.35006908 l 0.759746,1.3159143 C 26.650144,2.461997 26.925462,2.405885 27.213595,2.405885 l 0,0 z"
       inkscape:connector-curvature="0" />
    <path
       style="fill:#714836;fill-opacity:1"
       id="path21"
       d="m 29.383227,4.9077241 c -0.151153,1.0621478 -1.06642,1.8815973 -2.169633,1.8815973 -0.288327,0 -0.563741,-0.056112 -0.816051,-0.1578518 l -0.759842,1.3160116 c 0.486563,0.2293021 1.02186,0.350263 1.575796,0.350263 0.289395,0 0.573741,-0.033396 0.84867,-0.097468 0.02116,-0.4159861 0.245903,-0.8131391 0.633348,-1.0368105 0.386959,-0.2234771 0.842554,-0.2198851 1.21301,-0.030871 0.577818,-0.6133487 0.923324,-1.3908596 0.992056,-2.2248704 l -1.517354,-4e-7 0,0 z"
       inkscape:connector-curvature="0" />
    <path
       style="fill:#714836;fill-opacity:1"
       id="path10"
       d="m 25.021925,4.5976514 c 0,-0.6982937 0.328226,-1.3212534 0.83838,-1.722872 L 25.100753,1.5590595 c -0.178141,0.1244561 -0.346671,0.2653186 -0.503649,0.4221992 -0.439576,0.4395766 -0.754794,0.9703107 -0.928275,1.549585 0.349487,0.2263895 0.580925,0.619368 0.580925,1.0668077 0,0.4473431 -0.231438,0.8404182 -0.580925,1.0667111 0.173481,0.5792743 0.488699,1.1100083 0.928275,1.5495846 0.156881,0.1568808 0.325217,0.2975494 0.503261,0.4221026 L 25.860013,6.3202325 C 25.349957,5.9186139 25.021925,5.2956539 25.021925,4.5976514 z"
       inkscape:connector-curvature="0" />
    <circle
       style="fill:#714836;fill-opacity:1"
       id="circle12"
       transform="matrix(0.09707962,0,0,0.09707962,22.093712,0.04422915)"
       r="9.1239996"
       cy="9.1260004"
       cx="74.540001"
       sodipodi:cx="74.540001"
       sodipodi:cy="9.1260004"
       sodipodi:rx="9.1239996"
       sodipodi:ry="9.1239996"
       d="m 83.664001,9.1260004 c 0,5.0390456 -4.084954,9.1239996 -9.124,9.1239996 -5.039046,0 -9.124,-4.084954 -9.124,-9.1239996 0,-5.0390458 4.084954,-9.12399959 9.124,-9.12399959 5.039046,0 9.124,4.08495379 9.124,9.12399959 z" />
  </g>
</svg>
